[
  {
    "name": "audio_preview_url",
    "type": "STRING",
    "mode": "NULLABLE",
    "description": ""
  },
  {
    "name": "description",
    "type": "STRING",
    "mode": "NULLABLE",
    "description": ""
  },
  {
    "name": "html_description",
    "type": "STRING",
    "mode": "NULLABLE",
    "description": ""
  },
  {
    "name": "duration_ms",
    "type": "INTEGER",
    "mode": "NULLABLE",
    "description": ""
  },
  {
    "name": "explicit",
    "type": "BOOLEAN",
    "mode": "NULLABLE",
    "description": ""
  },
  {
    "name": "external_urls",
    "type": "RECORD",
    "mode": "NULLABLE",
    "fields": [
      {
        "name": "spotify",
        "type": "STRING"
      }
    ]
  },
  {
    "name": "href",
    "type": "STRING",
    "mode": "NULLABLE",
    "description": ""
  },
  {
    "name": "id",
    "type": "STRING",
    "mode": "NULLABLE",
    "description": ""
  },
  {
    "name": "images",
    "type": "RECORD",
    "mode": "REPEATED",
    "fields": [
      {
        "name": "url",
        "type": "STRING"
      },
      {
        "name": "height",
        "type": "INTEGER"
      },
      {
        "name": "width",
        "type": "INTEGER"
      }
    ]
  },
  {
    "name": "is_externally_hosted",
    "type": "BOOLEAN",
    "mode": "NULLABLE",
    "description": ""
  },
  {
    "name": "is_playable",
    "type": "BOOLEAN",
    "mode": "NULLABLE",
    "description": ""
  },
  {
    "name": "language",
    "type": "STRING",
    "mode": "NULLABLE",
    "description": ""
  },
  {
    "name": "languages",
    "type": "STRING",
    "mode": "REPEATED"
  },
  {
    "name": "name",
    "type": "STRING",
    "mode": "NULLABLE",
    "description": ""
  },
  {
    "name": "release_date",
    "type": "DATE",
    "mode": "NULLABLE",
    "description": ""
  },
  {
    "name": "release_date_precision",
    "type": "STRING",
    "mode": "NULLABLE",
    "description": ""
  },
  {
    "name": "resume_point",
    "type": "RECORD",
    "mode": "NULLABLE",
    "fields": [
      {
        "name": "fully_played",
        "type": "BOOLEAN"
      },
      {
        "name": "resume_position_ms",
        "type": "INTEGER"
      }
    ]
  },
  {
    "name": "type",
    "type": "STRING",
    "mode": "NULLABLE",
    "description": ""
  },
  {
    "name": "uri",
    "type": "STRING",
    "mode": "NULLABLE",
    "description": ""
  },
  {
    "name": "restrictions",
    "type": "RECORD",
    "mode": "NULLABLE",
    "fields": [
      {
        "name": "reason",
        "type": "STRING"
      }
    ]
  }
]
