[
  {
    "name":"ANO_MES",
    "type":"DATE",
    "mode":"NULLABLE",
    "description":"ANO E MES DA VENDA"
  },
  {
    "name":"MARCA",
    "type":"STRING",
    "mode":"NULLABLE",
    "description":"Nome da marca"
  },
  {
    "name":"QTD_VENDA",
    "type":"INTEGER",
    "mode":"NULLABLE",
    "description":"Quantidade de vendas para aquele dia, marca e linha"
  }
]